CA3 - RTL Design and SystemC Simulation/Codes/TopModuleTest.vcd
$date
     May 29, 2022       05:28:39
$end

$version
 SystemC 2.3.1-Accellera --- May 25 2022 09:37:07
$end

$timescale
     1 ps
$end

$scope module SystemC $end
$var wire    1  aaaaa  clk       $end
$var wire    4  aaaab  NewPage [3:0]  $end
$var wire    1  aaaac  completed       $end
$var wire    1  aaaad  free       $end
$var wire    4  aaaae  Memory_0 [3:0]  $end
$var wire    4  aaaaf  Memory_1 [3:0]  $end
$var wire    4  aaaag  Memory_2 [3:0]  $end
$var wire    4  aaaah  Memory_3 [3:0]  $end
$var wire    4  aaaai  Memory_4 [3:0]  $end
$var wire    4  aaaaj  Memory_5 [3:0]  $end
$var wire    4  aaaak  Memory_6 [3:0]  $end
$var wire    4  aaaal  Memory_7 [3:0]  $end
$var wire    1  aaaam  APR_ld       $end
$var wire    1  aaaan  DWB_sel       $end
$var wire    1  aaaao  cnt_inc       $end
$var wire    1  aaaap  cnt_rst       $end
$var wire    1  aaaaq  AB_sel       $end
$var wire    1  aaaar  AP_ld       $end
$var wire    1  aaaas  write       $end
$var wire    1  aaaat  read       $end
$upscope $end
$enddefinitions  $end

$comment
All initial values are dumped below at time 0 sec = 0 timescale units.
$end

$dumpvars
xaaaaa
b100 aaaab
0aaaac
1aaaad
b0 aaaae
b1 aaaaf
b10 aaaag
b11 aaaah
b100 aaaai
b101 aaaaj
b110 aaaak
b111 aaaal
0aaaam
0aaaan
0aaaao
0aaaap
0aaaaq
0aaaar
0aaaas
0aaaat
$end

#5000
1aaaaa

#7000
1aaaac

#10000
0aaaaa

#15000
1aaaaa
0aaaad
1aaaar

#20000
0aaaaa

#25000
1aaaaa
0aaaar
1aaaat

#28000
0aaaac

#30000
0aaaaa

#35000
1aaaaa
1aaaam
1aaaap
0aaaat

#40000
0aaaaa

#45000
1aaaaa
0aaaam
0aaaap
1aaaaq
1aaaat

#50000
0aaaaa

#55000
1aaaaa
b1 aaaae
1aaaas
0aaaat

#60000
0aaaaa

#65000
1aaaaa
0aaaaq
0aaaas

#70000
0aaaaa

#75000
1aaaaa
1aaaao

#80000
0aaaaa

#85000
1aaaaa
0aaaao
1aaaaq
1aaaat

#90000
0aaaaa

#95000
1aaaaa
b10 aaaaf
1aaaas
0aaaat

#100000
0aaaaa

#105000
1aaaaa
0aaaaq
0aaaas

#110000
0aaaaa

#115000
1aaaaa
1aaaao

#120000
0aaaaa

#125000
1aaaaa
0aaaao
1aaaaq
1aaaat

#130000
0aaaaa

#135000
1aaaaa
b11 aaaag
1aaaas
0aaaat

#140000
0aaaaa

#145000
1aaaaa
0aaaaq
0aaaas

#150000
0aaaaa

#155000
1aaaaa
1aaaao

#160000
0aaaaa

#165000
1aaaaa
0aaaao
1aaaaq
1aaaat

#170000
0aaaaa

#175000
1aaaaa
b100 aaaah
1aaaas
0aaaat

#180000
0aaaaa

#185000
1aaaaa
0aaaaq
0aaaas

#190000
0aaaaa

#195000
1aaaaa
1aaaao

#200000
0aaaaa
b101 aaaab

#205000
1aaaaa
0aaaao
1aaaaq
1aaaat

#210000
0aaaaa

#215000
1aaaaa
0aaaaq
0aaaat

#220000
0aaaaa

#225000
1aaaaa
1aaaao

#230000
0aaaaa

#235000
1aaaaa
0aaaao
1aaaaq
1aaaat

#240000
0aaaaa

#245000
1aaaaa
0aaaaq
0aaaat

#250000
0aaaaa

#255000
1aaaaa
1aaaao

#260000
0aaaaa

#265000
1aaaaa
0aaaao
1aaaaq
1aaaat

#270000
0aaaaa

#275000
1aaaaa
0aaaaq
0aaaat

#280000
0aaaaa

#285000
1aaaaa
1aaaao

#290000
0aaaaa

#295000
1aaaaa
0aaaao
1aaaaq
1aaaat

#300000
0aaaaa

#305000
1aaaaa
0aaaaq
0aaaat

#310000
0aaaaa

#315000
1aaaaa
1aaaao

#320000
0aaaaa

#325000
1aaaaa
0aaaao
1aaaaq
1aaaat

#330000
0aaaaa

#335000
1aaaaa
0aaaaq
0aaaat

#340000
0aaaaa

#345000
1aaaaa
1aaaao

#350000
0aaaaa

#355000
1aaaaa
0aaaao
1aaaaq
1aaaat

#360000
0aaaaa

#365000
1aaaaa
0aaaaq
0aaaat

#370000
0aaaaa

#375000
1aaaaa
1aaaao

#380000
0aaaaa

#385000
1aaaaa
0aaaao
1aaaaq
1aaaat

#390000
0aaaaa

#395000
1aaaaa
0aaaaq
0aaaat

#400000
0aaaaa

#405000
1aaaaa
1aaaao

#410000
0aaaaa

#415000
1aaaaa
0aaaao
1aaaaq
1aaaat

#420000
0aaaaa

#425000
1aaaaa
0aaaaq
0aaaat

#430000
0aaaaa

#435000
1aaaaa
1aaaao

#440000
0aaaaa

#445000
1aaaaa
0aaaao
1aaaaq
1aaaat

#448000
1aaaac

#450000
0aaaaa

#455000
1aaaaa
0aaaaq
0aaaat

#460000
0aaaaa

#465000
1aaaaa
1aaaao

#470000
0aaaaa

#475000
1aaaaa
0aaaao
1aaaaq
1aaaat

#480000
0aaaaa

#485000
1aaaaa
0aaaaq
0aaaat

#490000
0aaaaa

#495000
1aaaaa
1aaaao

#500000
0aaaaa

#505000
1aaaaa
0aaaao
1aaaaq
1aaaat

#510000
0aaaaa

#515000
1aaaaa
0aaaaq
0aaaat

#520000
0aaaaa

#525000
1aaaaa
1aaaao

#530000
0aaaaa

#535000
1aaaaa
0aaaao
1aaaaq
1aaaat

#540000
0aaaaa

#545000
1aaaaa
0aaaaq
0aaaat

#550000
0aaaaa

#555000
1aaaaa
b0 aaaai
1aaaan
1aaaas

#560000
0aaaaa

#565000
1aaaaa
1aaaad
0aaaan
0aaaas

#570000
0aaaaa

#575000
1aaaaa
0aaaad
1aaaar

#580000
0aaaaa

#585000
1aaaaa
0aaaar
1aaaat

#590000
0aaaaa

#595000
1aaaaa
1aaaam
1aaaap
0aaaat

#600000
0aaaaa

#605000
1aaaaa
0aaaam
0aaaap
1aaaaq
1aaaat

#610000
0aaaaa

#615000
1aaaaa
b10 aaaae
1aaaas
0aaaat

#620000
0aaaaa

#625000
1aaaaa
0aaaaq
0aaaas

#630000
0aaaaa

#635000
1aaaaa
1aaaao

#640000
0aaaaa

#645000
1aaaaa
0aaaao
1aaaaq
1aaaat

#650000
0aaaaa

#655000
1aaaaa
b11 aaaaf
1aaaas
0aaaat

#660000
0aaaaa

#665000
1aaaaa
0aaaaq
0aaaas

#670000
0aaaaa

#675000
1aaaaa
1aaaao

#680000
0aaaaa

#685000
1aaaaa
0aaaao
1aaaaq
1aaaat

#690000
0aaaaa

#695000
1aaaaa
b100 aaaag
1aaaas
0aaaat

#700000
0aaaaa

#705000
1aaaaa
0aaaaq
0aaaas

#710000
0aaaaa

#715000
1aaaaa
1aaaao

#720000
0aaaaa

#725000
1aaaaa
0aaaao
1aaaaq
1aaaat

#730000
0aaaaa

#735000
1aaaaa
b101 aaaah
1aaaas
0aaaat

#740000
0aaaaa

#745000
1aaaaa
0aaaaq
0aaaas

#750000
0aaaaa

#755000
1aaaaa
1aaaao

#758000
0aaaac

#760000
0aaaaa

#765000
1aaaaa
0aaaao
1aaaaq
1aaaat

#770000
0aaaaa

#775000
1aaaaa
b1 aaaai
1aaaas
0aaaat

#780000
0aaaaa

#785000
1aaaaa
0aaaaq
0aaaas

#790000
0aaaaa

#795000
1aaaaa
1aaaao

#800000
0aaaaa

#805000
1aaaaa
0aaaao
1aaaaq
1aaaat

#810000
0aaaaa

#815000
1aaaaa
0aaaaq
0aaaat

#820000
0aaaaa

#825000
1aaaaa
1aaaao

#830000
0aaaaa

#835000
1aaaaa
0aaaao
1aaaaq
1aaaat

#840000
0aaaaa

#845000
1aaaaa
0aaaaq
0aaaat

#850000
0aaaaa

#855000
1aaaaa
1aaaao

#860000
0aaaaa

#865000
1aaaaa
0aaaao
1aaaaq
1aaaat

#870000
0aaaaa

#875000
1aaaaa
0aaaaq
0aaaat

#880000
0aaaaa

#885000
1aaaaa
1aaaao

#890000
0aaaaa

#895000
1aaaaa
0aaaao
1aaaaq
1aaaat

#900000
0aaaaa

#905000
1aaaaa
0aaaaq
0aaaat

#910000
0aaaaa

#915000
1aaaaa
1aaaao

#920000
0aaaaa

#925000
1aaaaa
0aaaao
1aaaaq
1aaaat

#930000
0aaaaa

#935000
1aaaaa
0aaaaq
0aaaat

#940000
0aaaaa

#945000
1aaaaa
1aaaao

#950000
0aaaaa

#955000
1aaaaa
0aaaao
1aaaaq
1aaaat

#960000
0aaaaa

#965000
1aaaaa
0aaaaq
0aaaat

#970000
0aaaaa

#975000
1aaaaa
1aaaao

#980000
0aaaaa

#985000
1aaaaa
0aaaao
1aaaaq
1aaaat

#990000
0aaaaa

#995000
1aaaaa
0aaaaq
0aaaat

#1000000
0aaaaa

#1005000
1aaaaa
1aaaao

#1010000
0aaaaa

#1015000
1aaaaa
0aaaao
1aaaaq
1aaaat

#1020000
0aaaaa

#1025000
1aaaaa
0aaaaq
0aaaat

#1030000
0aaaaa

#1035000
1aaaaa
1aaaao

#1040000
0aaaaa

#1045000
1aaaaa
0aaaao
1aaaaq
1aaaat

#1050000
0aaaaa

#1055000
1aaaaa
0aaaaq
0aaaat

#1060000
0aaaaa

#1065000
1aaaaa
1aaaao

#1070000
0aaaaa

#1075000
1aaaaa
0aaaao
1aaaaq
1aaaat

#1080000
0aaaaa

#1085000
1aaaaa
0aaaaq
0aaaat

#1090000
0aaaaa

#1095000
1aaaaa
1aaaao

#1100000
0aaaaa

#1105000
1aaaaa
0aaaao
1aaaaq
1aaaat

#1110000
0aaaaa

#1115000
1aaaaa
0aaaaq
0aaaat

#1120000
0aaaaa

#1125000
1aaaaa
b0 aaaaj
1aaaan
1aaaas

#1130000
0aaaaa

#1135000
1aaaaa
1aaaad
0aaaan
0aaaas

